individual1
…
##  Conflicts  tidyverse_conflicts() 
## x dplyr::filter() masks stats::filter()
## x dplyr::lag()    masks stats::lag()

library(ggpubr)
happy <- readxl::read_xls('/Users/ryanherren/Downloads/GSS.xls')

## Warning in read_fun(path = enc2native(normalizePath(path)), sheet_i = sheet, :
## Expecting numeric in A64817 / R64817C1: got 'Source'

happy

## # A tibble: 64,816 x 12
##    `Gss year for this  `General happine `Belief in life a `Political party a
##                   <dbl> <chr>             <chr>              <chr>              
##  1                 1972 Not too happy     Not applicable     Ind,near dem       
##  2                 1972 Not too happy     Not applicable     Not str democrat   
##  3                 1972 Pretty happy      Not applicable     Independent        
##  4                 1972 Not too happy     Not applicable     Not str democrat   
##  5                 1972 Pretty happy      Not applicable     Strong democrat    
##  6                 1972 Pretty happy      Not applicable     Ind,near dem       
##  7                 1972 Not too happy     Not applicable     Ind,near dem       
##  8                 1972 Not too happy     Not applicable     Ind,near dem       
##  9                 1972 Pretty happy      Not applicable     Strong democrat    
## 10                 1972 Pretty happy      Not applicable     Strong democrat    
## #  with 64,806 more rows, and 8 more variables: Total family income <chr>,
## #   Respondents sex <chr>, Highest year of school completed <chr>,
## #   Number of children <chr>, Marital status <chr>,
## #   Number of hours usually work a week <chr>, Respondent id number <dbl>,
## #   Ballot used for interview <chr>
…
happy

## # A tibble: 64,816 x 12
##     year happiness  belief   party  income  sex   education num_children marital
##    <dbl> <chr>      <chr>    <chr>  <chr>   <chr> <chr>     <chr>        <chr>  
##  1  1972 Not too h Not app Ind,n Not ap Fema 16        0            Never 
##  2  1972 Not too h Not app Not s Not ap Male  10        5            Married
##  3  1972 Pretty ha Not app Indep Not ap Fema 12        4            Married
##  4  1972 Not too h Not app Not s Not ap Fema 17        0            Married
##  5  1972 Pretty ha Not app Stron Not ap Fema 12        2            Married
##  6  1972 Pretty ha Not app Ind,n Not ap Male  14        0            Never 
##  7  1972 Not too h Not app Ind,n Not ap Male  13        2            Divorc
##  8  1972 Not too h Not app Ind,n Not ap Male  16        0            Never 
##  9  1972 Pretty ha Not app Stron Not ap Fema 12        2            Never 
## 10  1972 Pretty ha Not app Stron Not ap Fema 12        4            Married
## #  with 64,806 more rows, and 3 more variables: work <chr>, id <dbl>,
## #   ballot <chr>
…
